SHA1: 4E:FC:DD:77:98:60:30:7A:B8:D0:4A:ED:82:8F:76:D2:CD:5D:B6:BD
         SHA256: 05:A1:D1:31:6D:64:5F:8A:D7:43:1C:43:4B:AC:1D:9D:30:13:6F:AA:44:0E:12:82:49:3E:2A:5C:53:EA:1D:29


3Am0CFxlZT+8qZJNpJbya6i4fuY=
